<?xml version="1.0" encoding="utf-8"?>
<!-- Generator: Adobe Illustrator 19.0.0, SVG Export Plug-In . SVG Version: 6.00 Build 0)  -->
<svg version="1.1" id="Layer_1" xmlns="http://www.w3.org/2000/svg" xmlns:xlink="http://www.w3.org/1999/xlink" x="0px" y="0px"
	 viewBox="-289 381 32 32" style="enable-background:new -289 381 32 32;" xml:space="preserve">
<style type="text/css">
	.st0{fill:#039147;}
</style>
<g>
	<polygon class="st0" points="-280.1,394.5 -280.1,400.8 -277,397.6 	"/>
	<path class="st0" d="M-273,399c0.5,0,0.9-0.2,1.2-0.5l5.6-5.6c-0.1-0.1-0.3-0.2-0.4-0.2h-12.9c-0.2,0-0.3,0.1-0.4,0.2l5.6,5.6
		C-273.9,398.8-273.5,399-273,399z"/>
	<path class="st0" d="M-270.8,399.4c-0.6,0.6-1.4,0.9-2.2,0.9s-1.6-0.3-2.2-0.9l-0.8-0.8l-3.9,3.9c0.1,0.1,0.3,0.2,0.4,0.2h12.9
		c0.2,0,0.3-0.1,0.4-0.2l-3.9-3.9L-270.8,399.4z"/>
	<polygon class="st0" points="-265.9,400.8 -265.9,394.5 -269,397.6 	"/>
	<path class="st0" d="M-273,381c-8.8,0-16,7.2-16,16c0,8.8,7.2,16,16,16c8.8,0,16-7.2,16-16C-257,388.2-264.2,381-273,381z
		 M-264.3,402c0,1.2-1,2.3-2.3,2.3h-12.9c-1.2,0-2.3-1-2.3-2.3v-8.6c0-1.2,1-2.3,2.3-2.3h12.9c1.2,0,2.3,1,2.3,2.3V402z"/>
</g>
</svg>
